Getting Started
…
library(yfR)
library(ggplot2)

my_ticker <- c('TSLA', 'GM', 'MMM')
first_date <- Sys.Date() - 100
last_date <- Sys.Date()

df_yf_multiple <- yf_get(tickers = my_ticker, 
                         first_date = first_date,
                         last_date = last_date)

print(df_yf_multiple)

## # A tibble: 213 × 11
##    ticker ref_date   price_open price_high price_low price_close   volume
##  * <chr>  <date>          <dbl>      <dbl>     <dbl>       <dbl>    <dbl>
##  1 GM     2024-07-23       49.3       49.5      45.8        46.4 41152100
##  2 GM     2024-07-24       45.3       46.6      45.1        46.5 21134900
##  3 GM     2024-07-25       45.7       45.8      44.1        44.1 27256400
##  4 GM     2024-07-26       44.3       44.5      43.7        44.1 18411100
##  5 GM     2024-07-29       44.1       44.3      43.7        44.2 12521500
##  6 GM     2024-07-30       44.2       45.0      44.2        44.2 12171700
##  7 GM     2024-07-31       44.3       45.1      43.7        44.3 14112000
##  8 GM     2024-08-01       44.7       45.2      43.1        43.4 15919000
##  9 GM     2024-08-02       42.4       42.4      41.0        41.2 21627000
## 10 GM     2024-08-05       39.4       40.3      39.0        40.0 23849400
## # ℹ 203 more rows
## # ℹ 4 more variables: price_adjusted <dbl>, ret_adjusted_prices <dbl>,
## #   ret_closing_prices <dbl>, cumret_adjusted_prices <dbl>
…
